[
  {
    "line": 1,
    "elements": [
      {
        "before": [
          {
            "result": {
              "duration": 3882766614,
              "status": "passed"
            },
            "match": {
              "location": "Hooks.beforeHook(Scenario)"
            }
          }
        ],
        "line": 24,
        "name": "Navigate to linked stores:[The_Teacher_Store]",
        "description": "",
        "id": "verify-that-user-can-go-to-all-links;navigate-to-linked-stores:[\u003cusingdata\u003e];;2",
        "after": [
          {
            "result": {
              "duration": 1362915008,
              "status": "passed"
            },
            "match": {
              "location": "Hooks.afterHook(Scenario)"
            }
          }
        ],
        "type": "scenario",
        "keyword": "Scenario Outline",
        "steps": [
          {
            "result": {
              "duration": 946895136,
              "status": "passed"
            },
            "line": 17,
            "name": "user is on the Scholastic Corporate homepage",
            "match": {
              "location": "CorpHomePageSteps.userLaunchApp()"
            },
            "keyword": "Given "
          },
          {
            "result": {
              "duration": 151597327,
              "status": "passed"
            },
            "line": 18,
            "name": "user hovers over the Shop dropdown",
            "match": {
              "location": "CorpHomePageSteps.user_hovers_over_dropdown()"
            },
            "keyword": "When "
          },
          {
            "result": {
              "duration": 2946661280,
              "status": "passed"
            },
            "line": 19,
            "name": "user clicks on the \u0027navButton\u0027 button",
            "match": {
              "location": "CorpHomePageSteps.user_clicks_on_button()"
            },
            "keyword": "When "
          },
          {
            "result": {
              "duration": 89421748,
              "status": "passed"
            },
            "line": 20,
            "name": "user should be brought to the \u0027pageTitle\u0027 expected webpage",
            "match": {
              "location": "CorpHomePageSteps.user_brought_to_expected_webpage()"
            },
            "keyword": "Then "
          }
        ]
      },
      {
        "before": [
          {
            "result": {
              "duration": 3739843581,
              "status": "passed"
            },
            "match": {
              "location": "Hooks.beforeHook(Scenario)"
            }
          }
        ],
        "line": 25,
        "name": "Navigate to linked stores:[The_Scholastic_Store]",
        "description": "",
        "id": "verify-that-user-can-go-to-all-links;navigate-to-linked-stores:[\u003cusingdata\u003e];;3",
        "after": [
          {
            "result": {
              "duration": 1369252356,
              "status": "passed"
            },
            "match": {
              "location": "Hooks.afterHook(Scenario)"
            }
          }
        ],
        "type": "scenario",
        "keyword": "Scenario Outline",
        "steps": [
          {
            "result": {
              "duration": 986399598,
              "status": "passed"
            },
            "line": 17,
            "name": "user is on the Scholastic Corporate homepage",
            "match": {
              "location": "CorpHomePageSteps.userLaunchApp()"
            },
            "keyword": "Given "
          },
          {
            "result": {
              "duration": 140459709,
              "status": "passed"
            },
            "line": 18,
            "name": "user hovers over the Shop dropdown",
            "match": {
              "location": "CorpHomePageSteps.user_hovers_over_dropdown()"
            },
            "keyword": "When "
          },
          {
            "result": {
              "duration": 3504322565,
              "status": "passed"
            },
            "line": 19,
            "name": "user clicks on the \u0027navButton\u0027 button",
            "match": {
              "location": "CorpHomePageSteps.user_clicks_on_button()"
            },
            "keyword": "When "
          },
          {
            "result": {
              "duration": 67675256,
              "status": "passed"
            },
            "line": 20,
            "name": "user should be brought to the \u0027pageTitle\u0027 expected webpage",
            "match": {
              "location": "CorpHomePageSteps.user_brought_to_expected_webpage()"
            },
            "keyword": "Then "
          }
        ]
      }
    ],
    "name": "Verify that user can go to all links",
    "description": "",
    "id": "verify-that-user-can-go-to-all-links",
    "keyword": "Feature",
    "uri": "features/corpHome-test/NavigateNav.feature"
  }
]